%YAML 1.1
%TAG !u! tag:unity3d.com,2011:
--- !u!114 &11400000
MonoBehaviour:
  m_ObjectHideFlags: 0
  m_CorrespondingSourceObject: {fileID: 0}
  m_PrefabInstance: {fileID: 0}
  m_PrefabAsset: {fileID: 0}
  m_GameObject: {fileID: 0}
  m_Enabled: 1
  m_EditorHideFlags: 0
  m_Script: {fileID: 11500000, guid: 95e66c6366d904e98bc83428217d4fd7, type: 3}
  m_Name: CapsuleScaling
  m_EditorClassIdentifier: 
  _data:
    _json: '{"graph":{"variables":{"Kind":"Flow","collection":{"$content":[],"$version":"A"},"$version":"A"},"controlInputDefinitions":[],"controlOutputDefinitions":[],"valueInputDefinitions":[],"valueOutputDefinitions":[],"title":null,"summary":null,"pan":{"x":42.30466,"y":213.9735},"zoom":0.9,"elements":[{"coroutine":false,"defaultValues":{},"position":{"x":-377.0,"y":30.0},"guid":"8822a1c2-e4f8-4cb0-80ee-4a45542e23a5","$version":"A","$type":"Unity.VisualScripting.Update","$id":"9"},{"inputCount":2,"defaultValues":{},"position":{"x":297.0,"y":155.0},"guid":"a442a1b1-7ebe-4e7e-a05a-9fbe92fd800c","$version":"A","$type":"Unity.VisualScripting.GenericSum","$id":"11"},{"chainable":false,"member":{"name":"localScale","parameterTypes":null,"targetType":"UnityEngine.Transform","targetTypeName":"UnityEngine.Transform","$version":"A"},"defaultValues":{"target":null,"input":{"x":0.0,"y":0.0,"z":0.0,"$type":"UnityEngine.Vector3"}},"position":{"x":414.0,"y":-20.0},"guid":"4751537d-087b-4b18-9e92-6f8ec526e97a","$version":"A","$type":"Unity.VisualScripting.SetMember","$id":"13"},{"specifyFallback":false,"kind":"Object","defaultValues":{"name":{"$content":"scaleUnits","$type":"System.String"},"object":null},"position":{"x":-412.0,"y":323.0},"guid":"7d8574f6-5eb4-44f3-97a3-a2a2397f5917","$version":"A","$type":"Unity.VisualScripting.GetVariable","$id":"16"},{"member":{"name":"localScale","parameterTypes":null,"targetType":"UnityEngine.Transform","targetTypeName":"UnityEngine.Transform","$version":"A"},"defaultValues":{"target":null},"position":{"x":172.0,"y":64.0},"guid":"c762f43d-4b1f-4344-8765-717263a9a34d","$version":"A","$type":"Unity.VisualScripting.GetMember","$id":"18"},{"defaultValues":{},"position":{"x":60.0,"y":153.0},"guid":"ce634d64-cb5b-4394-8cb0-708070488a8f","$version":"A","$type":"Unity.VisualScripting.GenericMultiply","$id":"21"},{"defaultValues":{},"position":{"x":-90.0,"y":303.0},"guid":"51f267a9-9e68-44fd-bde6-e7f1025a0084","$version":"A","$type":"Unity.VisualScripting.GenericMultiply","$id":"23"},{"member":{"name":"deltaTime","parameterTypes":null,"targetType":"UnityEngine.Time","targetTypeName":"UnityEngine.Time","$version":"A"},"defaultValues":{},"position":{"x":-289.0,"y":448.0},"guid":"3d32e888-23f1-41df-bc6f-1ba5e29ffead","$version":"A","$type":"Unity.VisualScripting.GetMember","$id":"25"},{"chainable":false,"member":{"name":"ClampMagnitude","parameterTypes":["UnityEngine.Vector3","System.Single"],"targetType":"UnityEngine.Vector3","targetTypeName":"UnityEngine.Vector3","$version":"A"},"defaultValues":{"%vector":{"x":0.0,"y":0.0,"z":0.0,"$type":"UnityEngine.Vector3"},"%maxLength":{"$content":200.0,"$type":"System.Single"}},"position":{"x":-160.0,"y":11.0},"guid":"e33e5b31-6376-4210-b14c-d89602ec2315","$version":"A","$type":"Unity.VisualScripting.InvokeMember","$id":"28"},{"specifyFallback":false,"kind":"Object","defaultValues":{"name":{"$content":"axes","$type":"System.String"},"object":null},"position":{"x":-409.0,"y":147.0},"guid":"ea05f65f-fb17-40e4-baf9-da7a3f878ae5","$version":"A","$type":"Unity.VisualScripting.GetVariable","$id":"31"},{"sourceUnit":{"$ref":"9"},"sourceKey":"trigger","destinationUnit":{"$ref":"28"},"destinationKey":"enter","guid":"14b8392a-8806-4628-a9e5-db1bacca177e","$type":"Unity.VisualScripting.ControlConnection"},{"sourceUnit":{"$ref":"28"},"sourceKey":"exit","destinationUnit":{"$ref":"13"},"destinationKey":"assign","guid":"8bcfe8a8-b38e-455d-b7b5-4b0a40a7c416","$type":"Unity.VisualScripting.ControlConnection"},{"sourceUnit":{"$ref":"28"},"sourceKey":"result","destinationUnit":{"$ref":"21"},"destinationKey":"a","guid":"05463d8f-b2aa-412a-b3e0-7f021dcae2d3","$type":"Unity.VisualScripting.ValueConnection"},{"sourceUnit":{"$ref":"31"},"sourceKey":"value","destinationUnit":{"$ref":"28"},"destinationKey":"%vector","guid":"04cba2e8-5973-4bc3-8ce2-8e95cb6fd059","$type":"Unity.VisualScripting.ValueConnection"},{"sourceUnit":{"$ref":"16"},"sourceKey":"value","destinationUnit":{"$ref":"23"},"destinationKey":"a","guid":"9f767cb8-43b7-4fc7-8d4e-e9b6434f387a","$type":"Unity.VisualScripting.ValueConnection"},{"sourceUnit":{"$ref":"21"},"sourceKey":"product","destinationUnit":{"$ref":"11"},"destinationKey":"1","guid":"6c6ab56c-1b1f-47ae-903f-2d7a9f7fc7cb","$type":"Unity.VisualScripting.ValueConnection"},{"sourceUnit":{"$ref":"18"},"sourceKey":"value","destinationUnit":{"$ref":"11"},"destinationKey":"0","guid":"e12a099b-ce15-471a-bdce-8bc19ca3a07e","$type":"Unity.VisualScripting.ValueConnection"},{"sourceUnit":{"$ref":"25"},"sourceKey":"value","destinationUnit":{"$ref":"23"},"destinationKey":"b","guid":"3abcb572-e879-44d7-b607-b0a981c695b2","$type":"Unity.VisualScripting.ValueConnection"},{"sourceUnit":{"$ref":"23"},"sourceKey":"product","destinationUnit":{"$ref":"21"},"destinationKey":"b","guid":"b82db891-17c6-4d28-ab05-79a317d53b50","$type":"Unity.VisualScripting.ValueConnection"},{"sourceUnit":{"$ref":"11"},"sourceKey":"sum","destinationUnit":{"$ref":"13"},"destinationKey":"input","guid":"692db360-1022-42ea-a543-9cc96a3c9487","$type":"Unity.VisualScripting.ValueConnection"}],"$version":"A"}}'
    _objectReferences: []
